{
  "project_info": {
    "project_number": "193778988409",
    "firebase_url": "https://financetracker-3d415.firebaseio.com",
    "project_id": "financetracker-3d415",
    "storage_bucket": "financetracker-3d415.appspot.com"
  },
  "client": [
    {
      "client_info": {
        "mobilesdk_app_id": "1:193778988409:android:59e76d9ecf8e3050",
        "android_client_info": {
          "package_name": "pt.tiagocarvalho.financetracker"
        }
      },
      "oauth_client": [
        {
          "client_id": "193778988409-r6lrtpuqd1ovm42n5v0uahoucmhillkk.apps.googleusercontent.com",
          "client_type": 1,
          "android_info": {
            "package_name": "pt.tiagocarvalho.financetracker",
            "certificate_hash": "654a6bd07be5d7d425ad0dd1228f131c566b0106"
          }
        },
        {
          "client_id": "193778988409-2pp54uepllao0jd2srsl7jq1nu4d2ihs.apps.googleusercontent.com",
          "client_type": 1,
          "android_info": {
            "package_name": "pt.tiagocarvalho.financetracker",
            "certificate_hash": "ead2f4cc5e1f55f9e200008a390079147b4f0e74"
          }
        },
        {
          "client_id": "193778988409-v7j7rjbm6ruo5vut8kl9vjf4b2d6m0ci.apps.googleusercontent.com",
          "client_type": 3
        }
      ],
      "api_key": [
        {
          "current_key": "AIzaSyCFVnn8UjePxaEmLlBwz6eHvy8LUqY1gns"
        }
      ],
      "services": {
        "appinvite_service": {
          "other_platform_oauth_client": [
            {
              "client_id": "193778988409-m0p5k25et51k2gttjn87jmlcsves1558.apps.googleusercontent.com",
              "client_type": 3
            }
          ]
        }
      },
      "admob_app_id": "ca-app-pub-8033179797631683~6759823583"
    },
    {
      "client_info": {
        "mobilesdk_app_id": "1:193778988409:android:cf8d9a82b98e78e5f46ba8",
        "android_client_info": {
          "package_name": "pt.tiagocarvalho.financetracker.dev"
        }
      },
      "oauth_client": [
        {
          "client_id": "193778988409-v7j7rjbm6ruo5vut8kl9vjf4b2d6m0ci.apps.googleusercontent.com",
          "client_type": 3
        }
      ],
      "api_key": [
        {
          "current_key": "AIzaSyCFVnn8UjePxaEmLlBwz6eHvy8LUqY1gns"
        }
      ],
      "services": {
        "appinvite_service": {
          "other_platform_oauth_client": [
            {
              "client_id": "193778988409-m0p5k25et51k2gttjn87jmlcsves1558.apps.googleusercontent.com",
              "client_type": 3
            }
          ]
        }
      },
      "admob_app_id": "ca-app-pub-8033179797631683~1052464668"
    }
  ],
  "configuration_version": "1"
}