{
  "v": "5.3.0",
  "fr": 60,
  "ip": 0,
  "op": 121,
  "w": 41,
  "h": 33,
  "nm": "bulb",
  "ddd": 0,
  "assets": [],
  "layers": [
    {
      "ddd": 0,
      "ind": 1,
      "ty": 4,
      "nm": "Shape Layer 2",
      "sr": 1,
      "ks": {
        "o": {
          "a": 0,
          "k": 100,
          "ix": 11
        },
        "r": {
          "a": 0,
          "k": 0,
          "ix": 10
        },
        "p": {
          "a": 0,
          "k": [
            20.5,
            16.5,
            0
          ],
          "ix": 2
        },
        "a": {
          "a": 0,
          "k": [
            0,
            0,
            0
          ],
          "ix": 1
        },
        "s": {
          "a": 0,
          "k": [
            -100,
            100,
            100
          ],
          "ix": 6
        }
      },
      "ao": 0,
      "shapes": [
        {
          "ty": "gr",
          "it": [
            {
              "ind": 0,
              "ty": "sh",
              "ix": 1,
              "ks": {
                "a": 0,
                "k": {
                  "i": [
                    [
                      0,
                      0
                    ],
                    [
                      0,
                      0
                    ]
                  ],
                  "o": [
                    [
                      0,
                      0
                    ],
                    [
                      0,
                      0
                    ]
                  ],
                  "v": [
                    [
                      12.063,
                      6.563
                    ],
                    [
                      15.563,
                      9.438
                    ]
                  ],
                  "c": false
                },
                "ix": 2
              },
              "nm": "Path 1",
              "mn": "ADBE Vector Shape - Group",
              "hd": false
            },
            {
              "ty": "st",
              "c": {
                "a": 0,
                "k": [
                  1,
                  0.270588235294,
                  0.305882352941,
                  1
                ],
                "ix": 3
              },
              "o": {
                "a": 0,
                "k": 100,
                "ix": 4
              },
              "w": {
                "a": 0,
                "k": 0.7,
                "ix": 5
              },
              "lc": 2,
              "lj": 1,
              "ml": 4,
              "ml2": {
                "a": 0,
                "k": 4,
                "ix": 8
              },
              "nm": "Stroke 1",
              "mn": "ADBE Vector Graphic - Stroke",
              "hd": false
            },
            {
              "ty": "fl",
              "c": {
                "a": 0,
                "k": [
                  1,
                  1,
                  1,
                  1
                ],
                "ix": 4
              },
              "o": {
                "a": 0,
                "k": 100,
                "ix": 5
              },
              "r": 1,
              "nm": "Fill 1",
              "mn": "ADBE Vector Graphic - Fill",
              "hd": true
            },
            {
              "ty": "tr",
              "p": {
                "a": 0,
                "k": [
                  0,
                  0
                ],
                "ix": 2
              },
              "a": {
                "a": 0,
                "k": [
                  0,
                  0
                ],
                "ix": 1
              },
              "s": {
                "a": 0,
                "k": [
                  100,
                  100
                ],
                "ix": 3
              },
              "r": {
                "a": 0,
                "k": 0,
                "ix": 6
              },
              "o": {
                "a": 0,
                "k": 100,
                "ix": 7
              },
              "sk": {
                "a": 0,
                "k": 0,
                "ix": 4
              },
              "sa": {
                "a": 0,
                "k": 0,
                "ix": 5
              },
              "nm": "Transform"
            }
          ],
          "nm": "Shape 3",
          "np": 3,
          "cix": 2,
          "ix": 1,
          "mn": "ADBE Vector Group",
          "hd": false
        },
        {
          "ty": "gr",
          "it": [
            {
              "ind": 0,
              "ty": "sh",
              "ix": 1,
              "ks": {
                "a": 0,
                "k": {
                  "i": [
                    [
                      0,
                      0
                    ],
                    [
                      0,
                      0
                    ]
                  ],
                  "o": [
                    [
                      0,
                      0
                    ],
                    [
                      0,
                      0
                    ]
                  ],
                  "v": [
                    [
                      13.563,
                      0.313
                    ],
                    [
                      18.313,
                      0.063
                    ]
                  ],
                  "c": false
                },
                "ix": 2
              },
              "nm": "Path 1",
              "mn": "ADBE Vector Shape - Group",
              "hd": false
            },
            {
              "ty": "st",
              "c": {
                "a": 0,
                "k": [
                  1,
                  0.270588248968,
                  0.305882364511,
                  0.925490260124
                ],
                "ix": 3
              },
              "o": {
                "a": 0,
                "k": 100,
                "ix": 4
              },
              "w": {
                "a": 0,
                "k": 0.7,
                "ix": 5
              },
              "lc": 2,
              "lj": 1,
              "ml": 4,
              "ml2": {
                "a": 0,
                "k": 4,
                "ix": 8
              },
              "nm": "Stroke 1",
              "mn": "ADBE Vector Graphic - Stroke",
              "hd": false
            },
            {
              "ty": "fl",
              "c": {
                "a": 0,
                "k": [
                  1,
                  1,
                  1,
                  1
                ],
                "ix": 4
              },
              "o": {
                "a": 0,
                "k": 100,
                "ix": 5
              },
              "r": 1,
              "nm": "Fill 1",
              "mn": "ADBE Vector Graphic - Fill",
              "hd": true
            },
            {
              "ty": "tr",
              "p": {
                "a": 0,
                "k": [
                  0,
                  0
                ],
                "ix": 2
              },
              "a": {
                "a": 0,
                "k": [
                  0,
                  0
                ],
                "ix": 1
              },
              "s": {
                "a": 0,
                "k": [
                  100,
                  100
                ],
                "ix": 3
              },
              "r": {
                "a": 0,
                "k": 0,
                "ix": 6
              },
              "o": {
                "a": 0,
                "k": 100,
                "ix": 7
              },
              "sk": {
                "a": 0,
                "k": 0,
                "ix": 4
              },
              "sa": {
                "a": 0,
                "k": 0,
                "ix": 5
              },
              "nm": "Transform"
            }
          ],
          "nm": "Shape 2",
          "np": 3,
          "cix": 2,
          "ix": 2,
          "mn": "ADBE Vector Group",
          "hd": false
        },
        {
          "ty": "gr",
          "it": [
            {
              "ind": 0,
              "ty": "sh",
              "ix": 1,
              "ks": {
                "a": 0,
                "k": {
                  "i": [
                    [
                      0,
                      0
                    ],
                    [
                      0,
                      0
                    ]
                  ],
                  "o": [
                    [
                      0,
                      0
                    ],
                    [
                      0,
                      0
                    ]
                  ],
                  "v": [
                    [
                      12.125,
                      -6.688
                    ],
                    [
                      16.063,
                      -9.813
                    ]
                  ],
                  "c": false
                },
                "ix": 2
              },
              "nm": "Path 1",
              "mn": "ADBE Vector Shape - Group",
              "hd": false
            },
            {
              "ty": "st",
              "c": {
                "a": 0,
                "k": [
                  1,
                  0.270588248968,
                  0.305882364511,
                  0.925490260124
                ],
                "ix": 3
              },
              "o": {
                "a": 0,
                "k": 100,
                "ix": 4
              },
              "w": {
                "a": 0,
                "k": 0.7,
                "ix": 5
              },
              "lc": 2,
              "lj": 1,
              "ml": 4,
              "ml2": {
                "a": 0,
                "k": 4,
                "ix": 8
              },
              "nm": "Stroke 1",
              "mn": "ADBE Vector Graphic - Stroke",
              "hd": false
            },
            {
              "ty": "fl",
              "c": {
                "a": 0,
                "k": [
                  1,
                  1,
                  1,
                  1
                ],
                "ix": 4
              },
              "o": {
                "a": 0,
                "k": 100,
                "ix": 5
              },
              "r": 1,
              "nm": "Fill 1",
              "mn": "ADBE Vector Graphic - Fill",
              "hd": true
            },
            {
              "ty": "tr",
              "p": {
                "a": 0,
                "k": [
                  0,
                  0
                ],
                "ix": 2
              },
              "a": {
                "a": 0,
                "k": [
                  0,
                  0
                ],
                "ix": 1
              },
              "s": {
                "a": 0,
                "k": [
                  100,
                  100
                ],
                "ix": 3
              },
              "r": {
                "a": 0,
                "k": 0,
                "ix": 6
              },
              "o": {
                "a": 0,
                "k": 100,
                "ix": 7
              },
              "sk": {
                "a": 0,
                "k": 0,
                "ix": 4
              },
              "sa": {
                "a": 0,
                "k": 0,
                "ix": 5
              },
              "nm": "Transform"
            }
          ],
          "nm": "Shape 1",
          "np": 3,
          "cix": 2,
          "ix": 3,
          "mn": "ADBE Vector Group",
          "hd": false
        },
        {
          "ty": "tm",
          "s": {
            "a": 0,
            "k": 0,
            "ix": 1
          },
          "e": {
            "a": 1,
            "k": [
              {
                "i": {
                  "x": [
                    0.667
                  ],
                  "y": [
                    1
                  ]
                },
                "o": {
                  "x": [
                    0.167
                  ],
                  "y": [
                    0.167
                  ]
                },
                "n": [
                  "0p667_1_0p167_0p167"
                ],
                "t": 108,
                "s": [
                  0
                ],
                "e": [
                  100
                ]
              },
              {
                "t": 119
              }
            ],
            "ix": 2
          },
          "o": {
            "a": 0,
            "k": 0,
            "ix": 3
          },
          "m": 1,
          "ix": 4,
          "nm": "Trim Paths 1",
          "mn": "ADBE Vector Filter - Trim",
          "hd": false
        }
      ],
      "ip": 0,
      "op": 3600,
      "st": 0,
      "bm": 0
    },
    {
      "ddd": 0,
      "ind": 2,
      "ty": 4,
      "nm": "Shape Layer 1",
      "sr": 1,
      "ks": {
        "o": {
          "a": 0,
          "k": 100,
          "ix": 11
        },
        "r": {
          "a": 0,
          "k": 0,
          "ix": 10
        },
        "p": {
          "a": 0,
          "k": [
            20.5,
            16.5,
            0
          ],
          "ix": 2
        },
        "a": {
          "a": 0,
          "k": [
            0,
            0,
            0
          ],
          "ix": 1
        },
        "s": {
          "a": 0,
          "k": [
            100,
            100,
            100
          ],
          "ix": 6
        }
      },
      "ao": 0,
      "shapes": [
        {
          "ty": "gr",
          "it": [
            {
              "ind": 0,
              "ty": "sh",
              "ix": 1,
              "ks": {
                "a": 0,
                "k": {
                  "i": [
                    [
                      0,
                      0
                    ],
                    [
                      0,
                      0
                    ]
                  ],
                  "o": [
                    [
                      0,
                      0
                    ],
                    [
                      0,
                      0
                    ]
                  ],
                  "v": [
                    [
                      12.063,
                      6.563
                    ],
                    [
                      15.563,
                      9.438
                    ]
                  ],
                  "c": false
                },
                "ix": 2
              },
              "nm": "Path 1",
              "mn": "ADBE Vector Shape - Group",
              "hd": false
            },
            {
              "ty": "st",
              "c": {
                "a": 0,
                "k": [
                  1,
                  0.270588235294,
                  0.305882352941,
                  1
                ],
                "ix": 3
              },
              "o": {
                "a": 0,
                "k": 100,
                "ix": 4
              },
              "w": {
                "a": 0,
                "k": 0.7,
                "ix": 5
              },
              "lc": 2,
              "lj": 1,
              "ml": 4,
              "ml2": {
                "a": 0,
                "k": 4,
                "ix": 8
              },
              "nm": "Stroke 1",
              "mn": "ADBE Vector Graphic - Stroke",
              "hd": false
            },
            {
              "ty": "fl",
              "c": {
                "a": 0,
                "k": [
                  1,
                  1,
                  1,
                  1
                ],
                "ix": 4
              },
              "o": {
                "a": 0,
                "k": 100,
                "ix": 5
              },
              "r": 1,
              "nm": "Fill 1",
              "mn": "ADBE Vector Graphic - Fill",
              "hd": true
            },
            {
              "ty": "tr",
              "p": {
                "a": 0,
                "k": [
                  0,
                  0
                ],
                "ix": 2
              },
              "a": {
                "a": 0,
                "k": [
                  0,
                  0
                ],
                "ix": 1
              },
              "s": {
                "a": 0,
                "k": [
                  100,
                  100
                ],
                "ix": 3
              },
              "r": {
                "a": 0,
                "k": 0,
                "ix": 6
              },
              "o": {
                "a": 0,
                "k": 100,
                "ix": 7
              },
              "sk": {
                "a": 0,
                "k": 0,
                "ix": 4
              },
              "sa": {
                "a": 0,
                "k": 0,
                "ix": 5
              },
              "nm": "Transform"
            }
          ],
          "nm": "Shape 3",
          "np": 3,
          "cix": 2,
          "ix": 1,
          "mn": "ADBE Vector Group",
          "hd": false
        },
        {
          "ty": "gr",
          "it": [
            {
              "ind": 0,
              "ty": "sh",
              "ix": 1,
              "ks": {
                "a": 0,
                "k": {
                  "i": [
                    [
                      0,
                      0
                    ],
                    [
                      0,
                      0
                    ]
                  ],
                  "o": [
                    [
                      0,
                      0
                    ],
                    [
                      0,
                      0
                    ]
                  ],
                  "v": [
                    [
                      13.563,
                      0.313
                    ],
                    [
                      18.313,
                      0.063
                    ]
                  ],
                  "c": false
                },
                "ix": 2
              },
              "nm": "Path 1",
              "mn": "ADBE Vector Shape - Group",
              "hd": false
            },
            {
              "ty": "st",
              "c": {
                "a": 0,
                "k": [
                  1,
                  0.270588248968,
                  0.305882364511,
                  0.925490260124
                ],
                "ix": 3
              },
              "o": {
                "a": 0,
                "k": 100,
                "ix": 4
              },
              "w": {
                "a": 0,
                "k": 0.7,
                "ix": 5
              },
              "lc": 2,
              "lj": 1,
              "ml": 4,
              "ml2": {
                "a": 0,
                "k": 4,
                "ix": 8
              },
              "nm": "Stroke 1",
              "mn": "ADBE Vector Graphic - Stroke",
              "hd": false
            },
            {
              "ty": "fl",
              "c": {
                "a": 0,
                "k": [
                  1,
                  1,
                  1,
                  1
                ],
                "ix": 4
              },
              "o": {
                "a": 0,
                "k": 100,
                "ix": 5
              },
              "r": 1,
              "nm": "Fill 1",
              "mn": "ADBE Vector Graphic - Fill",
              "hd": true
            },
            {
              "ty": "tr",
              "p": {
                "a": 0,
                "k": [
                  0,
                  0
                ],
                "ix": 2
              },
              "a": {
                "a": 0,
                "k": [
                  0,
                  0
                ],
                "ix": 1
              },
              "s": {
                "a": 0,
                "k": [
                  100,
                  100
                ],
                "ix": 3
              },
              "r": {
                "a": 0,
                "k": 0,
                "ix": 6
              },
              "o": {
                "a": 0,
                "k": 100,
                "ix": 7
              },
              "sk": {
                "a": 0,
                "k": 0,
                "ix": 4
              },
              "sa": {
                "a": 0,
                "k": 0,
                "ix": 5
              },
              "nm": "Transform"
            }
          ],
          "nm": "Shape 2",
          "np": 3,
          "cix": 2,
          "ix": 2,
          "mn": "ADBE Vector Group",
          "hd": false
        },
        {
          "ty": "gr",
          "it": [
            {
              "ind": 0,
              "ty": "sh",
              "ix": 1,
              "ks": {
                "a": 0,
                "k": {
                  "i": [
                    [
                      0,
                      0
                    ],
                    [
                      0,
                      0
                    ]
                  ],
                  "o": [
                    [
                      0,
                      0
                    ],
                    [
                      0,
                      0
                    ]
                  ],
                  "v": [
                    [
                      12.125,
                      -6.688
                    ],
                    [
                      16.063,
                      -9.813
                    ]
                  ],
                  "c": false
                },
                "ix": 2
              },
              "nm": "Path 1",
              "mn": "ADBE Vector Shape - Group",
              "hd": false
            },
            {
              "ty": "st",
              "c": {
                "a": 0,
                "k": [
                  1,
                  0.270588248968,
                  0.305882364511,
                  0.925490260124
                ],
                "ix": 3
              },
              "o": {
                "a": 0,
                "k": 100,
                "ix": 4
              },
              "w": {
                "a": 0,
                "k": 0.7,
                "ix": 5
              },
              "lc": 2,
              "lj": 1,
              "ml": 4,
              "ml2": {
                "a": 0,
                "k": 4,
                "ix": 8
              },
              "nm": "Stroke 1",
              "mn": "ADBE Vector Graphic - Stroke",
              "hd": false
            },
            {
              "ty": "fl",
              "c": {
                "a": 0,
                "k": [
                  1,
                  1,
                  1,
                  1
                ],
                "ix": 4
              },
              "o": {
                "a": 0,
                "k": 100,
                "ix": 5
              },
              "r": 1,
              "nm": "Fill 1",
              "mn": "ADBE Vector Graphic - Fill",
              "hd": true
            },
            {
              "ty": "tr",
              "p": {
                "a": 0,
                "k": [
                  0,
                  0
                ],
                "ix": 2
              },
              "a": {
                "a": 0,
                "k": [
                  0,
                  0
                ],
                "ix": 1
              },
              "s": {
                "a": 0,
                "k": [
                  100,
                  100
                ],
                "ix": 3
              },
              "r": {
                "a": 0,
                "k": 0,
                "ix": 6
              },
              "o": {
                "a": 0,
                "k": 100,
                "ix": 7
              },
              "sk": {
                "a": 0,
                "k": 0,
                "ix": 4
              },
              "sa": {
                "a": 0,
                "k": 0,
                "ix": 5
              },
              "nm": "Transform"
            }
          ],
          "nm": "Shape 1",
          "np": 3,
          "cix": 2,
          "ix": 3,
          "mn": "ADBE Vector Group",
          "hd": false
        },
        {
          "ty": "tm",
          "s": {
            "a": 0,
            "k": 0,
            "ix": 1
          },
          "e": {
            "a": 1,
            "k": [
              {
                "i": {
                  "x": [
                    0.667
                  ],
                  "y": [
                    1
                  ]
                },
                "o": {
                  "x": [
                    0.167
                  ],
                  "y": [
                    0.167
                  ]
                },
                "n": [
                  "0p667_1_0p167_0p167"
                ],
                "t": 108,
                "s": [
                  0
                ],
                "e": [
                  100
                ]
              },
              {
                "t": 119
              }
            ],
            "ix": 2
          },
          "o": {
            "a": 0,
            "k": 0,
            "ix": 3
          },
          "m": 1,
          "ix": 4,
          "nm": "Trim Paths 1",
          "mn": "ADBE Vector Filter - Trim",
          "hd": false
        }
      ],
      "ip": 0,
      "op": 3600,
      "st": 0,
      "bm": 0
    },
    {
      "ddd": 0,
      "ind": 3,
      "ty": 4,
      "nm": "Path 2910",
      "sr": 1,
      "ks": {
        "o": {
          "a": 0,
          "k": 100,
          "ix": 11
        },
        "r": {
          "a": 0,
          "k": 0,
          "ix": 10
        },
        "p": {
          "a": 0,
          "k": [
            20.768,
            16.624,
            0
          ],
          "ix": 2
        },
        "a": {
          "a": 0,
          "k": [
            9.873,
            15.124,
            0
          ],
          "ix": 1
        },
        "s": {
          "a": 0,
          "k": [
            100,
            100,
            100
          ],
          "ix": 6
        }
      },
      "ao": 0,
      "shapes": [
        {
          "ind": 0,
          "ty": "sh",
          "ix": 1,
          "ks": {
            "a": 0,
            "k": {
              "i": [
                [
                  4.922,
                  0.321
                ],
                [
                  0,
                  -5.617
                ],
                [
                  -0.428,
                  -1.07
                ],
                [
                  0,
                  0
                ],
                [
                  -0.107,
                  -0.214
                ],
                [
                  0,
                  0
                ],
                [
                  0,
                  0
                ],
                [
                  -0.642,
                  -2.835
                ],
                [
                  0,
                  0
                ],
                [
                  0,
                  0
                ],
                [
                  0,
                  0
                ],
                [
                  0,
                  0
                ],
                [
                  -0.053,
                  -0.374
                ],
                [
                  0,
                  0
                ],
                [
                  0,
                  0
                ],
                [
                  0,
                  0
                ],
                [
                  -0.053,
                  -0.268
                ],
                [
                  0,
                  0
                ],
                [
                  -0.695,
                  -0.107
                ],
                [
                  -1.284,
                  0
                ],
                [
                  -0.428,
                  1.123
                ],
                [
                  -0.214,
                  0.856
                ],
                [
                  0,
                  0.16
                ],
                [
                  0,
                  0
                ],
                [
                  0,
                  0
                ],
                [
                  0,
                  0
                ],
                [
                  -0.053,
                  0.053
                ],
                [
                  -0.053,
                  0.321
                ],
                [
                  0,
                  0
                ],
                [
                  0,
                  0
                ],
                [
                  0,
                  0
                ],
                [
                  -1.498,
                  2.514
                ],
                [
                  -0.107,
                  0.16
                ],
                [
                  0.053,
                  1.872
                ]
              ],
              "o": [
                [
                  -5.724,
                  -0.374
                ],
                [
                  0,
                  1.123
                ],
                [
                  0,
                  0
                ],
                [
                  0.107,
                  0.214
                ],
                [
                  0,
                  0
                ],
                [
                  0,
                  0
                ],
                [
                  1.337,
                  2.407
                ],
                [
                  0,
                  0
                ],
                [
                  0,
                  0
                ],
                [
                  0,
                  0
                ],
                [
                  0,
                  0
                ],
                [
                  0.053,
                  0.374
                ],
                [
                  0,
                  0
                ],
                [
                  0,
                  0
                ],
                [
                  0,
                  0
                ],
                [
                  0.053,
                  0.267
                ],
                [
                  0,
                  0
                ],
                [
                  0.268,
                  0.695
                ],
                [
                  0.374,
                  1.123
                ],
                [
                  1.284,
                  0
                ],
                [
                  0.802,
                  -0.107
                ],
                [
                  0,
                  -0.16
                ],
                [
                  0,
                  0
                ],
                [
                  0,
                  0
                ],
                [
                  0,
                  0
                ],
                [
                  0,
                  -0.053
                ],
                [
                  0.053,
                  -0.321
                ],
                [
                  0,
                  0
                ],
                [
                  0,
                  0
                ],
                [
                  0,
                  0
                ],
                [
                  0.642,
                  -2.996
                ],
                [
                  0.053,
                  -0.107
                ],
                [
                  0.909,
                  -1.605
                ],
                [
                  -0.321,
                  -4.922
                ]
              ],
              "v": [
                [
                  10.539,
                  0.022
                ],
                [
                  0,
                  9.812
                ],
                [
                  0.588,
                  13.075
                ],
                [
                  1.444,
                  14.787
                ],
                [
                  1.819,
                  15.429
                ],
                [
                  1.872,
                  15.483
                ],
                [
                  1.872,
                  15.483
                ],
                [
                  4.868,
                  23.401
                ],
                [
                  2.621,
                  23.401
                ],
                [
                  2.621,
                  24.203
                ],
                [
                  5.029,
                  24.203
                ],
                [
                  5.029,
                  24.257
                ],
                [
                  5.189,
                  25.38
                ],
                [
                  3.798,
                  25.38
                ],
                [
                  3.798,
                  26.183
                ],
                [
                  5.296,
                  26.183
                ],
                [
                  5.403,
                  26.932
                ],
                [
                  5.403,
                  27.039
                ],
                [
                  7.008,
                  28.323
                ],
                [
                  9.844,
                  30.249
                ],
                [
                  12.679,
                  28.323
                ],
                [
                  14.391,
                  26.771
                ],
                [
                  14.445,
                  26.236
                ],
                [
                  15.943,
                  26.236
                ],
                [
                  15.943,
                  25.434
                ],
                [
                  14.552,
                  25.434
                ],
                [
                  14.605,
                  25.22
                ],
                [
                  14.766,
                  24.257
                ],
                [
                  17.12,
                  24.257
                ],
                [
                  17.12,
                  23.454
                ],
                [
                  14.926,
                  23.454
                ],
                [
                  18.19,
                  15.055
                ],
                [
                  18.457,
                  14.627
                ],
                [
                  19.741,
                  9.277
                ]
              ],
              "c": true
            },
            "ix": 2
          },
          "nm": "Path 1",
          "mn": "ADBE Vector Shape - Group",
          "hd": false
        },
        {
          "ind": 1,
          "ty": "sh",
          "ix": 2,
          "ks": {
            "a": 0,
            "k": {
              "i": [
                [
                  0.802,
                  0
                ],
                [
                  0.374,
                  0.695
                ],
                [
                  0,
                  0
                ]
              ],
              "o": [
                [
                  -0.802,
                  0
                ],
                [
                  0,
                  0
                ],
                [
                  -0.374,
                  0.695
                ]
              ],
              "v": [
                [
                  9.844,
                  29.5
                ],
                [
                  7.918,
                  28.376
                ],
                [
                  11.77,
                  28.376
                ]
              ],
              "c": true
            },
            "ix": 2
          },
          "nm": "Path 2",
          "mn": "ADBE Vector Shape - Group",
          "hd": false
        },
        {
          "ind": 2,
          "ty": "sh",
          "ix": 3,
          "ks": {
            "a": 0,
            "k": {
              "i": [
                [
                  0,
                  -0.107
                ],
                [
                  0.535,
                  0
                ],
                [
                  0,
                  0
                ],
                [
                  0.16,
                  0.428
                ],
                [
                  0,
                  0.214
                ],
                [
                  0,
                  0
                ]
              ],
              "o": [
                [
                  -0.107,
                  0.535
                ],
                [
                  0,
                  0
                ],
                [
                  -0.481,
                  0
                ],
                [
                  0,
                  -0.214
                ],
                [
                  0,
                  0
                ],
                [
                  0,
                  0.107
                ]
              ],
              "v": [
                [
                  13.535,
                  26.664
                ],
                [
                  12.412,
                  27.574
                ],
                [
                  7.276,
                  27.574
                ],
                [
                  6.206,
                  26.878
                ],
                [
                  6.152,
                  26.29
                ],
                [
                  13.589,
                  26.29
                ]
              ],
              "c": true
            },
            "ix": 2
          },
          "nm": "Path 3",
          "mn": "ADBE Vector Shape - Group",
          "hd": false
        },
        {
          "ind": 3,
          "ty": "sh",
          "ix": 4,
          "ks": {
            "a": 0,
            "k": {
              "i": [
                [
                  0.053,
                  -0.268
                ],
                [
                  0,
                  -0.107
                ],
                [
                  0,
                  0
                ],
                [
                  0.107,
                  0.428
                ],
                [
                  0,
                  0
                ]
              ],
              "o": [
                [
                  0,
                  0.107
                ],
                [
                  0,
                  0
                ],
                [
                  -0.053,
                  -0.374
                ],
                [
                  0,
                  0
                ],
                [
                  -0.053,
                  0.321
                ]
              ],
              "v": [
                [
                  13.749,
                  25.113
                ],
                [
                  13.696,
                  25.434
                ],
                [
                  6.045,
                  25.434
                ],
                [
                  5.831,
                  24.257
                ],
                [
                  13.91,
                  24.257
                ]
              ],
              "c": true
            },
            "ix": 2
          },
          "nm": "Path 4",
          "mn": "ADBE Vector Shape - Group",
          "hd": false
        },
        {
          "ind": 4,
          "ty": "sh",
          "ix": 5,
          "ks": {
            "a": 0,
            "k": {
              "i": [
                [
                  0,
                  0
                ],
                [
                  0.107,
                  1.605
                ],
                [
                  -0.374,
                  0
                ],
                [
                  -0.374,
                  0.053
                ],
                [
                  -0.374,
                  -2.942
                ]
              ],
              "o": [
                [
                  0.321,
                  -2.942
                ],
                [
                  0.321,
                  0.053
                ],
                [
                  0.374,
                  0
                ],
                [
                  -0.107,
                  1.605
                ],
                [
                  0,
                  0
                ]
              ],
              "v": [
                [
                  8.613,
                  23.508
                ],
                [
                  8.827,
                  16.606
                ],
                [
                  9.897,
                  16.66
                ],
                [
                  10.967,
                  16.606
                ],
                [
                  11.181,
                  23.508
                ]
              ],
              "c": true
            },
            "ix": 2
          },
          "nm": "Path 5",
          "mn": "ADBE Vector Shape - Group",
          "hd": false
        },
        {
          "ind": 5,
          "ty": "sh",
          "ix": 6,
          "ks": {
            "a": 0,
            "k": {
              "i": [
                [
                  0.802,
                  -1.444
                ],
                [
                  0,
                  0
                ],
                [
                  0.053,
                  -0.107
                ],
                [
                  0.695,
                  -3.156
                ],
                [
                  0,
                  0
                ],
                [
                  -0.16,
                  1.551
                ],
                [
                  -0.428,
                  0.374
                ],
                [
                  0,
                  0
                ],
                [
                  -0.053,
                  0.107
                ],
                [
                  0,
                  0.214
                ],
                [
                  0,
                  0
                ],
                [
                  0,
                  0.053
                ],
                [
                  0.268,
                  0.321
                ],
                [
                  0.535,
                  -0.535
                ],
                [
                  0,
                  -0.374
                ],
                [
                  0.053,
                  -0.695
                ],
                [
                  0.428,
                  0
                ],
                [
                  0.321,
                  0
                ],
                [
                  0,
                  0.107
                ],
                [
                  0.268,
                  0.268
                ],
                [
                  0.535,
                  -0.535
                ],
                [
                  0,
                  -0.428
                ],
                [
                  0,
                  -0.053
                ],
                [
                  0,
                  0
                ],
                [
                  -0.16,
                  -0.16
                ],
                [
                  -0.053,
                  -0.107
                ],
                [
                  0,
                  0
                ],
                [
                  -0.856,
                  -0.16
                ],
                [
                  0.321,
                  -2.996
                ],
                [
                  0,
                  0
                ],
                [
                  1.444,
                  2.568
                ],
                [
                  0,
                  0
                ],
                [
                  0.107,
                  0.16
                ],
                [
                  0,
                  0
                ],
                [
                  0,
                  1.016
                ],
                [
                  -5.243,
                  -0.374
                ],
                [
                  -0.268,
                  -4.547
                ]
              ],
              "o": [
                [
                  0,
                  0
                ],
                [
                  -0.053,
                  0.107
                ],
                [
                  -1.551,
                  2.621
                ],
                [
                  0,
                  0
                ],
                [
                  -0.374,
                  -3.049
                ],
                [
                  0.856,
                  -0.214
                ],
                [
                  0,
                  0
                ],
                [
                  0.107,
                  -0.107
                ],
                [
                  0.16,
                  -0.214
                ],
                [
                  0,
                  0
                ],
                [
                  0,
                  -0.053
                ],
                [
                  0,
                  -0.374
                ],
                [
                  -0.535,
                  -0.535
                ],
                [
                  -0.267,
                  0.268
                ],
                [
                  0,
                  0.107
                ],
                [
                  -0.321,
                  0.053
                ],
                [
                  -0.428,
                  0
                ],
                [
                  -0.053,
                  -0.749
                ],
                [
                  0,
                  -0.374
                ],
                [
                  -0.535,
                  -0.535
                ],
                [
                  -0.267,
                  0.268
                ],
                [
                  0,
                  0.053
                ],
                [
                  0,
                  0
                ],
                [
                  0,
                  0.214
                ],
                [
                  0.053,
                  0.107
                ],
                [
                  0,
                  0
                ],
                [
                  0.428,
                  0.428
                ],
                [
                  0.107,
                  1.551
                ],
                [
                  0,
                  0
                ],
                [
                  -0.642,
                  -2.996
                ],
                [
                  0,
                  0
                ],
                [
                  -0.107,
                  -0.214
                ],
                [
                  0,
                  0
                ],
                [
                  -0.321,
                  -0.963
                ],
                [
                  0,
                  -5.189
                ],
                [
                  4.547,
                  0.321
                ],
                [
                  0,
                  1.765
                ]
              ],
              "v": [
                [
                  17.708,
                  14.252
                ],
                [
                  17.655,
                  14.306
                ],
                [
                  17.441,
                  14.68
                ],
                [
                  14.07,
                  23.508
                ],
                [
                  11.93,
                  23.508
                ],
                [
                  11.77,
                  16.499
                ],
                [
                  13.696,
                  15.59
                ],
                [
                  13.696,
                  15.59
                ],
                [
                  13.91,
                  15.269
                ],
                [
                  14.124,
                  14.627
                ],
                [
                  14.124,
                  14.627
                ],
                [
                  14.124,
                  14.52
                ],
                [
                  13.696,
                  13.45
                ],
                [
                  11.609,
                  13.45
                ],
                [
                  11.181,
                  14.466
                ],
                [
                  11.021,
                  15.75
                ],
                [
                  9.897,
                  15.804
                ],
                [
                  8.774,
                  15.75
                ],
                [
                  8.613,
                  14.466
                ],
                [
                  8.185,
                  13.45
                ],
                [
                  6.099,
                  13.45
                ],
                [
                  5.671,
                  14.52
                ],
                [
                  5.671,
                  14.627
                ],
                [
                  5.671,
                  14.627
                ],
                [
                  5.885,
                  15.269
                ],
                [
                  6.099,
                  15.59
                ],
                [
                  6.099,
                  15.59
                ],
                [
                  8.025,
                  16.499
                ],
                [
                  7.864,
                  23.508
                ],
                [
                  5.724,
                  23.508
                ],
                [
                  2.568,
                  15.108
                ],
                [
                  2.514,
                  15.055
                ],
                [
                  2.193,
                  14.466
                ],
                [
                  1.391,
                  12.808
                ],
                [
                  0.909,
                  9.812
                ],
                [
                  10.539,
                  0.824
                ],
                [
                  18.939,
                  9.33
                ]
              ],
              "c": true
            },
            "ix": 2
          },
          "nm": "Path 6",
          "mn": "ADBE Vector Shape - Group",
          "hd": false
        },
        {
          "ind": 6,
          "ty": "sh",
          "ix": 7,
          "ks": {
            "a": 0,
            "k": {
              "i": [
                [
                  0.053,
                  -0.107
                ],
                [
                  0.642,
                  -0.16
                ],
                [
                  0,
                  0
                ],
                [
                  0,
                  0
                ],
                [
                  -0.161,
                  0.16
                ],
                [
                  -0.268,
                  -0.267
                ],
                [
                  0,
                  -0.214
                ]
              ],
              "o": [
                [
                  -0.214,
                  0.268
                ],
                [
                  0.053,
                  -0.642
                ],
                [
                  0,
                  0
                ],
                [
                  0,
                  -0.16
                ],
                [
                  0.267,
                  -0.267
                ],
                [
                  0.107,
                  0.107
                ],
                [
                  -0.107,
                  0.16
                ]
              ],
              "v": [
                [
                  13.161,
                  14.894
                ],
                [
                  11.823,
                  15.59
                ],
                [
                  11.984,
                  14.573
                ],
                [
                  11.984,
                  14.52
                ],
                [
                  12.198,
                  14.038
                ],
                [
                  13.161,
                  14.038
                ],
                [
                  13.375,
                  14.52
                ]
              ],
              "c": true
            },
            "ix": 2
          },
          "nm": "Path 7",
          "mn": "ADBE Vector Shape - Group",
          "hd": false
        },
        {
          "ind": 7,
          "ty": "sh",
          "ix": 8,
          "ks": {
            "a": 0,
            "k": {
              "i": [
                [
                  0.267,
                  0.268
                ],
                [
                  0,
                  0.16
                ],
                [
                  -0.16,
                  0.16
                ],
                [
                  -0.268,
                  -0.268
                ],
                [
                  0,
                  -0.16
                ],
                [
                  0,
                  0
                ],
                [
                  -0.107,
                  -0.642
                ]
              ],
              "o": [
                [
                  -0.107,
                  -0.107
                ],
                [
                  0,
                  -0.16
                ],
                [
                  0.268,
                  -0.268
                ],
                [
                  0.107,
                  0.107
                ],
                [
                  0,
                  0
                ],
                [
                  0,
                  0
                ],
                [
                  -0.695,
                  -0.107
                ]
              ],
              "v": [
                [
                  6.527,
                  14.894
                ],
                [
                  6.366,
                  14.466
                ],
                [
                  6.58,
                  13.985
                ],
                [
                  7.543,
                  13.985
                ],
                [
                  7.757,
                  14.466
                ],
                [
                  7.757,
                  14.52
                ],
                [
                  7.918,
                  15.536
                ]
              ],
              "c": true
            },
            "ix": 2
          },
          "nm": "Path 8",
          "mn": "ADBE Vector Shape - Group",
          "hd": false
        },
        {
          "ty": "tm",
          "s": {
            "a": 1,
            "k": [
              {
                "i": {
                  "x": [
                    0.833
                  ],
                  "y": [
                    0.833
                  ]
                },
                "o": {
                  "x": [
                    0.167
                  ],
                  "y": [
                    0.167
                  ]
                },
                "n": [
                  "0p833_0p833_0p167_0p167"
                ],
                "t": 0,
                "s": [
                  100
                ],
                "e": [
                  0
                ]
              },
              {
                "t": 120
              }
            ],
            "ix": 1
          },
          "e": {
            "a": 0,
            "k": 100,
            "ix": 2
          },
          "o": {
            "a": 0,
            "k": 0,
            "ix": 3
          },
          "m": 1,
          "ix": 9,
          "nm": "Trim Paths 1",
          "mn": "ADBE Vector Filter - Trim",
          "hd": false
        },
        {
          "ty": "st",
          "c": {
            "a": 0,
            "k": [
              1,
              0.270588235294,
              0.305882352941,
              1
            ],
            "ix": 3
          },
          "o": {
            "a": 0,
            "k": 100,
            "ix": 4
          },
          "w": {
            "a": 0,
            "k": 0.6,
            "ix": 5
          },
          "lc": 2,
          "lj": 1,
          "ml": 4,
          "ml2": {
            "a": 0,
            "k": 4,
            "ix": 8
          },
          "nm": "Stroke 1",
          "mn": "ADBE Vector Graphic - Stroke",
          "hd": false
        },
        {
          "ty": "fl",
          "c": {
            "a": 0,
            "k": [
              1,
              0.270588235294,
              0.305882352941,
              1
            ],
            "ix": 4
          },
          "o": {
            "a": 0,
            "k": 100,
            "ix": 5
          },
          "r": 1,
          "nm": "Fill 1",
          "mn": "ADBE Vector Graphic - Fill",
          "hd": true
        }
      ],
      "ip": 0,
      "op": 3600,
      "st": 0,
      "bm": 0
    }
  ],
  "markers": []
}