{
  "formatVersion": 1,
  "database": {
    "version": 4,
    "identityHash": "d984980d7f96b28a81ae831fec6f9f49",
    "entities": [
      {
        "tableName": "platform",
        "createSql": "CREATE TABLE IF NOT EXISTS `${TABLE_NAME}` (`name` TEXT NOT NULL, `type` TEXT NOT NULL, `username` TEXT, `password` TEXT, `twofactor` INTEGER NOT NULL, `interest` TEXT, `interestsFrequency` TEXT, `recurringAmount` TEXT NOT NULL, `recurringFrequency` TEXT, PRIMARY KEY(`name`))",
        "fields": [
          {
            "fieldPath": "name",
            "columnName": "name",
            "affinity": "TEXT",
            "notNull": true
          },
          {
            "fieldPath": "type",
            "columnName": "type",
            "affinity": "TEXT",
            "notNull": true
          },
          {
            "fieldPath": "username",
            "columnName": "username",
            "affinity": "TEXT",
            "notNull": false
          },
          {
            "fieldPath": "password",
            "columnName": "password",
            "affinity": "TEXT",
            "notNull": false
          },
          {
            "fieldPath": "twofactor",
            "columnName": "twofactor",
            "affinity": "INTEGER",
            "notNull": true
          },
          {
            "fieldPath": "interest",
            "columnName": "interest",
            "affinity": "TEXT",
            "notNull": false
          },
          {
            "fieldPath": "interestsFrequency",
            "columnName": "interestsFrequency",
            "affinity": "TEXT",
            "notNull": false
          },
          {
            "fieldPath": "recurringAmount",
            "columnName": "recurringAmount",
            "affinity": "TEXT",
            "notNull": true
          },
          {
            "fieldPath": "recurringFrequency",
            "columnName": "recurringFrequency",
            "affinity": "TEXT",
            "notNull": false
          }
        ],
        "primaryKey": {
          "columnNames": [
            "name"
          ],
          "autoGenerate": false
        },
        "indices": [
          {
            "name": "index_platform_name",
            "unique": false,
            "columnNames": [
              "name"
            ],
            "createSql": "CREATE  INDEX `index_platform_name` ON `${TABLE_NAME}` (`name`)"
          },
          {
            "name": "index_platform_type",
            "unique": false,
            "columnNames": [
              "type"
            ],
            "createSql": "CREATE  INDEX `index_platform_type` ON `${TABLE_NAME}` (`type`)"
          }
        ],
        "foreignKeys": []
      },
      {
        "tableName": "account",
        "createSql": "CREATE TABLE IF NOT EXISTS `${TABLE_NAME}` (`name` TEXT NOT NULL, `type` TEXT NOT NULL, `balance` TEXT NOT NULL, `change_percentage` TEXT NOT NULL, `change_value` TEXT NOT NULL, PRIMARY KEY(`name`), FOREIGN KEY(`name`) REFERENCES `platform`(`name`) ON UPDATE NO ACTION ON DELETE CASCADE )",
        "fields": [
          {
            "fieldPath": "name",
            "columnName": "name",
            "affinity": "TEXT",
            "notNull": true
          },
          {
            "fieldPath": "type",
            "columnName": "type",
            "affinity": "TEXT",
            "notNull": true
          },
          {
            "fieldPath": "balance",
            "columnName": "balance",
            "affinity": "TEXT",
            "notNull": true
          },
          {
            "fieldPath": "changePercentage",
            "columnName": "change_percentage",
            "affinity": "TEXT",
            "notNull": true
          },
          {
            "fieldPath": "changeValue",
            "columnName": "change_value",
            "affinity": "TEXT",
            "notNull": true
          }
        ],
        "primaryKey": {
          "columnNames": [
            "name"
          ],
          "autoGenerate": false
        },
        "indices": [
          {
            "name": "index_account_name",
            "unique": false,
            "columnNames": [
              "name"
            ],
            "createSql": "CREATE  INDEX `index_account_name` ON `${TABLE_NAME}` (`name`)"
          }
        ],
        "foreignKeys": [
          {
            "table": "platform",
            "onDelete": "CASCADE",
            "onUpdate": "NO ACTION",
            "columns": [
              "name"
            ],
            "referencedColumns": [
              "name"
            ]
          }
        ]
      },
      {
        "tableName": "platform_details",
        "createSql": "CREATE TABLE IF NOT EXISTS `${TABLE_NAME}` (`name` TEXT NOT NULL, `platform` TEXT NOT NULL, `platform_type` TEXT NOT NULL, `total_deposits` TEXT, `total_withdrawals` TEXT, `total_balance` TEXT, `available_funds` TEXT, `invested_funds` TEXT, `total` TEXT, `net_annual_return` TEXT, `interest` TEXT, `late_payment_fees` TEXT, `bad_Debpt` TEXT, `secondary_market_transactions` TEXT, `service_fees` TEXT, `campaign_rewards` TEXT, `total_profit` TEXT, `my_investments` INTEGER, `total_investments_total` TEXT, `current_total` TEXT, `grace_period_total` TEXT, `one_to_fifteen_total` TEXT, `sixteen_to_thirty_total` TEXT, `thirty_to_sixty_total` TEXT, `more_than_sixty_total` TEXT, `default_total` TEXT, `bad_debt_total` TEXT, `overdue_total` TEXT, `total_number` INTEGER, `current_number` INTEGER, `grace_number` INTEGER, `one_to_fifteen_number` INTEGER, `sixteen_to_thirty_number` INTEGER, `thirty_to_sixty_number` INTEGER, `more_sixty_number` INTEGER, `default_number` INTEGER, `bad_debt_number` INTEGER, `pending_interests` TEXT, `interest_frequency` TEXT, `recurring_amount` TEXT, `recurring_frequency` TEXT, PRIMARY KEY(`name`), FOREIGN KEY(`name`) REFERENCES `platform`(`name`) ON UPDATE NO ACTION ON DELETE CASCADE )",
        "fields": [
          {
            "fieldPath": "name",
            "columnName": "name",
            "affinity": "TEXT",
            "notNull": true
          },
          {
            "fieldPath": "platform",
            "columnName": "platform",
            "affinity": "TEXT",
            "notNull": true
          },
          {
            "fieldPath": "platformType",
            "columnName": "platform_type",
            "affinity": "TEXT",
            "notNull": true
          },
          {
            "fieldPath": "totalDeposits",
            "columnName": "total_deposits",
            "affinity": "TEXT",
            "notNull": false
          },
          {
            "fieldPath": "totalWithdrawals",
            "columnName": "total_withdrawals",
            "affinity": "TEXT",
            "notNull": false
          },
          {
            "fieldPath": "totalBalance",
            "columnName": "total_balance",
            "affinity": "TEXT",
            "notNull": false
          },
          {
            "fieldPath": "availableFunds",
            "columnName": "available_funds",
            "affinity": "TEXT",
            "notNull": false
          },
          {
            "fieldPath": "investedFunds",
            "columnName": "invested_funds",
            "affinity": "TEXT",
            "notNull": false
          },
          {
            "fieldPath": "total",
            "columnName": "total",
            "affinity": "TEXT",
            "notNull": false
          },
          {
            "fieldPath": "netAnnualReturn",
            "columnName": "net_annual_return",
            "affinity": "TEXT",
            "notNull": false
          },
          {
            "fieldPath": "interest",
            "columnName": "interest",
            "affinity": "TEXT",
            "notNull": false
          },
          {
            "fieldPath": "latePaymentFees",
            "columnName": "late_payment_fees",
            "affinity": "TEXT",
            "notNull": false
          },
          {
            "fieldPath": "badDebt",
            "columnName": "bad_Debpt",
            "affinity": "TEXT",
            "notNull": false
          },
          {
            "fieldPath": "secondaryMarketTransactions",
            "columnName": "secondary_market_transactions",
            "affinity": "TEXT",
            "notNull": false
          },
          {
            "fieldPath": "serviceFees",
            "columnName": "service_fees",
            "affinity": "TEXT",
            "notNull": false
          },
          {
            "fieldPath": "campaignRewards",
            "columnName": "campaign_rewards",
            "affinity": "TEXT",
            "notNull": false
          },
          {
            "fieldPath": "totalProfit",
            "columnName": "total_profit",
            "affinity": "TEXT",
            "notNull": false
          },
          {
            "fieldPath": "myInvestments",
            "columnName": "my_investments",
            "affinity": "INTEGER",
            "notNull": false
          },
          {
            "fieldPath": "totalInvestmentsTotal",
            "columnName": "total_investments_total",
            "affinity": "TEXT",
            "notNull": false
          },
          {
            "fieldPath": "currentTotal",
            "columnName": "current_total",
            "affinity": "TEXT",
            "notNull": false
          },
          {
            "fieldPath": "gracePeriodTotal",
            "columnName": "grace_period_total",
            "affinity": "TEXT",
            "notNull": false
          },
          {
            "fieldPath": "oneToFifteenLateTotal",
            "columnName": "one_to_fifteen_total",
            "affinity": "TEXT",
            "notNull": false
          },
          {
            "fieldPath": "sixteenToThirtyLateTotal",
            "columnName": "sixteen_to_thirty_total",
            "affinity": "TEXT",
            "notNull": false
          },
          {
            "fieldPath": "thirtyToSixtyLateTotal",
            "columnName": "thirty_to_sixty_total",
            "affinity": "TEXT",
            "notNull": false
          },
          {
            "fieldPath": "moreThanSixtyLateTotal",
            "columnName": "more_than_sixty_total",
            "affinity": "TEXT",
            "notNull": false
          },
          {
            "fieldPath": "defaultInvestmentTotal",
            "columnName": "default_total",
            "affinity": "TEXT",
            "notNull": false
          },
          {
            "fieldPath": "badDebtTotal",
            "columnName": "bad_debt_total",
            "affinity": "TEXT",
            "notNull": false
          },
          {
            "fieldPath": "overdueTotal",
            "columnName": "overdue_total",
            "affinity": "TEXT",
            "notNull": false
          },
          {
            "fieldPath": "totalInvestmentsNumber",
            "columnName": "total_number",
            "affinity": "INTEGER",
            "notNull": false
          },
          {
            "fieldPath": "currentNumber",
            "columnName": "current_number",
            "affinity": "INTEGER",
            "notNull": false
          },
          {
            "fieldPath": "gracePeriodNumber",
            "columnName": "grace_number",
            "affinity": "INTEGER",
            "notNull": false
          },
          {
            "fieldPath": "oneToFifteenLateNumber",
            "columnName": "one_to_fifteen_number",
            "affinity": "INTEGER",
            "notNull": false
          },
          {
            "fieldPath": "sixteenToThirtyLateNumber",
            "columnName": "sixteen_to_thirty_number",
            "affinity": "INTEGER",
            "notNull": false
          },
          {
            "fieldPath": "thirtyToSixtyLateNumber",
            "columnName": "thirty_to_sixty_number",
            "affinity": "INTEGER",
            "notNull": false
          },
          {
            "fieldPath": "moreThanSixtyLateNumber",
            "columnName": "more_sixty_number",
            "affinity": "INTEGER",
            "notNull": false
          },
          {
            "fieldPath": "defaultInvestmentNumber",
            "columnName": "default_number",
            "affinity": "INTEGER",
            "notNull": false
          },
          {
            "fieldPath": "badDebtNumber",
            "columnName": "bad_debt_number",
            "affinity": "INTEGER",
            "notNull": false
          },
          {
            "fieldPath": "pendingInterests",
            "columnName": "pending_interests",
            "affinity": "TEXT",
            "notNull": false
          },
          {
            "fieldPath": "interestFrequency",
            "columnName": "interest_frequency",
            "affinity": "TEXT",
            "notNull": false
          },
          {
            "fieldPath": "recurringAmount",
            "columnName": "recurring_amount",
            "affinity": "TEXT",
            "notNull": false
          },
          {
            "fieldPath": "recurringFrequency",
            "columnName": "recurring_frequency",
            "affinity": "TEXT",
            "notNull": false
          }
        ],
        "primaryKey": {
          "columnNames": [
            "name"
          ],
          "autoGenerate": false
        },
        "indices": [
          {
            "name": "index_platform_details_name",
            "unique": false,
            "columnNames": [
              "name"
            ],
            "createSql": "CREATE  INDEX `index_platform_details_name` ON `${TABLE_NAME}` (`name`)"
          }
        ],
        "foreignKeys": [
          {
            "table": "platform",
            "onDelete": "CASCADE",
            "onUpdate": "NO ACTION",
            "columns": [
              "name"
            ],
            "referencedColumns": [
              "name"
            ]
          }
        ]
      },
      {
        "tableName": "platform_statement",
        "createSql": "CREATE TABLE IF NOT EXISTS `${TABLE_NAME}` (`name` TEXT NOT NULL, `amount` REAL NOT NULL, `date` INTEGER NOT NULL, `type` TEXT NOT NULL, `label` TEXT NOT NULL, PRIMARY KEY(`label`), FOREIGN KEY(`name`) REFERENCES `platform`(`name`) ON UPDATE NO ACTION ON DELETE CASCADE )",
        "fields": [
          {
            "fieldPath": "name",
            "columnName": "name",
            "affinity": "TEXT",
            "notNull": true
          },
          {
            "fieldPath": "amount",
            "columnName": "amount",
            "affinity": "REAL",
            "notNull": true
          },
          {
            "fieldPath": "date",
            "columnName": "date",
            "affinity": "INTEGER",
            "notNull": true
          },
          {
            "fieldPath": "type",
            "columnName": "type",
            "affinity": "TEXT",
            "notNull": true
          },
          {
            "fieldPath": "label",
            "columnName": "label",
            "affinity": "TEXT",
            "notNull": true
          }
        ],
        "primaryKey": {
          "columnNames": [
            "label"
          ],
          "autoGenerate": false
        },
        "indices": [
          {
            "name": "index_platform_statement_name",
            "unique": false,
            "columnNames": [
              "name"
            ],
            "createSql": "CREATE  INDEX `index_platform_statement_name` ON `${TABLE_NAME}` (`name`)"
          },
          {
            "name": "index_platform_statement_label",
            "unique": false,
            "columnNames": [
              "label"
            ],
            "createSql": "CREATE  INDEX `index_platform_statement_label` ON `${TABLE_NAME}` (`label`)"
          },
          {
            "name": "index_platform_statement_date",
            "unique": false,
            "columnNames": [
              "date"
            ],
            "createSql": "CREATE  INDEX `index_platform_statement_date` ON `${TABLE_NAME}` (`date`)"
          }
        ],
        "foreignKeys": [
          {
            "table": "platform",
            "onDelete": "CASCADE",
            "onUpdate": "NO ACTION",
            "columns": [
              "name"
            ],
            "referencedColumns": [
              "name"
            ]
          }
        ]
      },
      {
        "tableName": "savings_account",
        "createSql": "CREATE TABLE IF NOT EXISTS `${TABLE_NAME}` (`name` TEXT NOT NULL, `interest` TEXT NOT NULL, `interestsFrequency` TEXT NOT NULL, `recurringAmount` TEXT NOT NULL, `recurringFrequency` TEXT NOT NULL, PRIMARY KEY(`name`))",
        "fields": [
          {
            "fieldPath": "name",
            "columnName": "name",
            "affinity": "TEXT",
            "notNull": true
          },
          {
            "fieldPath": "interest",
            "columnName": "interest",
            "affinity": "TEXT",
            "notNull": true
          },
          {
            "fieldPath": "interestsFrequency",
            "columnName": "interestsFrequency",
            "affinity": "TEXT",
            "notNull": true
          },
          {
            "fieldPath": "recurringAmount",
            "columnName": "recurringAmount",
            "affinity": "TEXT",
            "notNull": true
          },
          {
            "fieldPath": "recurringFrequency",
            "columnName": "recurringFrequency",
            "affinity": "TEXT",
            "notNull": true
          }
        ],
        "primaryKey": {
          "columnNames": [
            "name"
          ],
          "autoGenerate": false
        },
        "indices": [
          {
            "name": "index_savings_account_name",
            "unique": false,
            "columnNames": [
              "name"
            ],
            "createSql": "CREATE  INDEX `index_savings_account_name` ON `${TABLE_NAME}` (`name`)"
          }
        ],
        "foreignKeys": []
      },
      {
        "tableName": "gambling_account",
        "createSql": "CREATE TABLE IF NOT EXISTS `${TABLE_NAME}` (`name` TEXT NOT NULL, PRIMARY KEY(`name`))",
        "fields": [
          {
            "fieldPath": "name",
            "columnName": "name",
            "affinity": "TEXT",
            "notNull": true
          }
        ],
        "primaryKey": {
          "columnNames": [
            "name"
          ],
          "autoGenerate": false
        },
        "indices": [
          {
            "name": "index_gambling_account_name",
            "unique": false,
            "columnNames": [
              "name"
            ],
            "createSql": "CREATE  INDEX `index_gambling_account_name` ON `${TABLE_NAME}` (`name`)"
          }
        ],
        "foreignKeys": []
      },
      {
        "tableName": "savings_statement",
        "createSql": "CREATE TABLE IF NOT EXISTS `${TABLE_NAME}` (`id` INTEGER PRIMARY KEY AUTOINCREMENT, `name` TEXT NOT NULL, `amount` REAL NOT NULL, `date` INTEGER NOT NULL, `type` TEXT NOT NULL, FOREIGN KEY(`name`) REFERENCES `platform`(`name`) ON UPDATE NO ACTION ON DELETE CASCADE )",
        "fields": [
          {
            "fieldPath": "id",
            "columnName": "id",
            "affinity": "INTEGER",
            "notNull": false
          },
          {
            "fieldPath": "name",
            "columnName": "name",
            "affinity": "TEXT",
            "notNull": true
          },
          {
            "fieldPath": "amount",
            "columnName": "amount",
            "affinity": "REAL",
            "notNull": true
          },
          {
            "fieldPath": "date",
            "columnName": "date",
            "affinity": "INTEGER",
            "notNull": true
          },
          {
            "fieldPath": "type",
            "columnName": "type",
            "affinity": "TEXT",
            "notNull": true
          }
        ],
        "primaryKey": {
          "columnNames": [
            "id"
          ],
          "autoGenerate": true
        },
        "indices": [
          {
            "name": "index_savings_statement_id",
            "unique": false,
            "columnNames": [
              "id"
            ],
            "createSql": "CREATE  INDEX `index_savings_statement_id` ON `${TABLE_NAME}` (`id`)"
          },
          {
            "name": "index_savings_statement_name",
            "unique": false,
            "columnNames": [
              "name"
            ],
            "createSql": "CREATE  INDEX `index_savings_statement_name` ON `${TABLE_NAME}` (`name`)"
          },
          {
            "name": "index_savings_statement_date",
            "unique": false,
            "columnNames": [
              "date"
            ],
            "createSql": "CREATE  INDEX `index_savings_statement_date` ON `${TABLE_NAME}` (`date`)"
          }
        ],
        "foreignKeys": [
          {
            "table": "platform",
            "onDelete": "CASCADE",
            "onUpdate": "NO ACTION",
            "columns": [
              "name"
            ],
            "referencedColumns": [
              "name"
            ]
          }
        ]
      },
      {
        "tableName": "gambling_statement",
        "createSql": "CREATE TABLE IF NOT EXISTS `${TABLE_NAME}` (`id` INTEGER PRIMARY KEY AUTOINCREMENT, `name` TEXT NOT NULL, `amount` REAL NOT NULL, `date` INTEGER NOT NULL, `type` TEXT NOT NULL, FOREIGN KEY(`name`) REFERENCES `platform`(`name`) ON UPDATE NO ACTION ON DELETE CASCADE )",
        "fields": [
          {
            "fieldPath": "id",
            "columnName": "id",
            "affinity": "INTEGER",
            "notNull": false
          },
          {
            "fieldPath": "name",
            "columnName": "name",
            "affinity": "TEXT",
            "notNull": true
          },
          {
            "fieldPath": "amount",
            "columnName": "amount",
            "affinity": "REAL",
            "notNull": true
          },
          {
            "fieldPath": "date",
            "columnName": "date",
            "affinity": "INTEGER",
            "notNull": true
          },
          {
            "fieldPath": "type",
            "columnName": "type",
            "affinity": "TEXT",
            "notNull": true
          }
        ],
        "primaryKey": {
          "columnNames": [
            "id"
          ],
          "autoGenerate": true
        },
        "indices": [
          {
            "name": "index_gambling_statement_id",
            "unique": false,
            "columnNames": [
              "id"
            ],
            "createSql": "CREATE  INDEX `index_gambling_statement_id` ON `${TABLE_NAME}` (`id`)"
          },
          {
            "name": "index_gambling_statement_name",
            "unique": false,
            "columnNames": [
              "name"
            ],
            "createSql": "CREATE  INDEX `index_gambling_statement_name` ON `${TABLE_NAME}` (`name`)"
          },
          {
            "name": "index_gambling_statement_date",
            "unique": false,
            "columnNames": [
              "date"
            ],
            "createSql": "CREATE  INDEX `index_gambling_statement_date` ON `${TABLE_NAME}` (`date`)"
          }
        ],
        "foreignKeys": [
          {
            "table": "platform",
            "onDelete": "CASCADE",
            "onUpdate": "NO ACTION",
            "columns": [
              "name"
            ],
            "referencedColumns": [
              "name"
            ]
          }
        ]
      }
    ],
    "views": [],
    "setupQueries": [
      "CREATE TABLE IF NOT EXISTS room_master_table (id INTEGER PRIMARY KEY,identity_hash TEXT)",
      "INSERT OR REPLACE INTO room_master_table (id,identity_hash) VALUES(42, 'd984980d7f96b28a81ae831fec6f9f49')"
    ]
  }
}